%YAML 1.1
%TAG !u! tag:unity3d.com,2011:
--- !u!114 &11400000
MonoBehaviour:
  m_ObjectHideFlags: 0
  m_CorrespondingSourceObject: {fileID: 0}
  m_PrefabInstance: {fileID: 0}
  m_PrefabAsset: {fileID: 0}
  m_GameObject: {fileID: 0}
  m_Enabled: 1
  m_EditorHideFlags: 0
  m_Script: {fileID: 11500000, guid: 20553fac56ec59645857c0732b787431, type: 3}
  m_Name: OVRBuildConfig
  m_EditorClassIdentifier: 
  androidSDKPath: D:\Unity\Installs\2019.4.0f1\Editor\Data\PlaybackEngines\AndroidPlayer\SDK
  gradlePath: D:\Unity\Installs\2019.4.0f1\Editor\Data\PlaybackEngines\AndroidPlayer\Tools\gradle\lib\gradle-launcher-5.1.1.jar
  jdkPath: D:/Unity/Installs/2019.4.0f1/Editor/Data/PlaybackEngines/AndroidPlayer\OpenJDK\bin\java.exe
