%YAML 1.1
%TAG !u! tag:unity3d.com,2011:
--- !u!1045 &1
EditorBuildSettings:
  m_ObjectHideFlags: 0
  serializedVersion: 2
  m_Scenes:
  - enabled: 1
    path: Assets/Scenes/IntroScene.unity
    guid: 968ed719ee357274baa6506cd033ab5b
  - enabled: 1
    path: Assets/Scenes/MasterScene.unity
    guid: 35170c07cdb814746ab1dadac35bb0db
  m_configObjects: {}
